
[
    {
        "name": "Josiah Allen",
		"serviceNumber": "2614",
		"unit": "49th Australian Infantry Battalion",
		"dob": "1890",
		"dod": "1917",
        "image": "http://resources.slq.qld.gov.au/images/slq/pub/2014-07-20/research/702692-19150828-s0022/702692-19150828-s0022-0002r.jpg",
        "pages": [
            {
                "description": "Josiah Allen was born at Gin Gin, Queensland, on 11 February 1890. He was considered a skilled marksman and horseman, and was a member of the Gin Gin Rifle Club. The 26-year-old farmer and grazier enlisted for service with the Australian Imperial Force on 5 July 1916, as did his brothers Ernest and James Edward.",
                "image": "http://resources.slq.qld.gov.au/images/slq/pub/2014-07-20/research/702692-19150828-s0022/702692-19150828-s0022-0002r.jpg",
                "location": {
                    "lat": "-24.992833",
                    "long": "151.959629",
					"label": "Gin Gin"
                }
            },
            {
                "description": "The three brothers departed Sydney with reinforcements for the 49th Infantry Battalion aboard HMAT Ceramic on 7 October 1916.",
                "image": "https://static.awm.gov.au/images/collection/items/ACCNUM_SCREEN/H19500.JPG",
                "location": {
                    "lat": "-33.874492",
                    "long": "151.199837",
					"label": "Sydney"
                }
            },
            {
                "description": "Having been sent to the Western Front, Allen wrote two letters to his brother William back in Australia in which he responded to news from home and described the conditions at the Front. Grateful for the food packages from home he despaired at the continual rain and cold weather on the Front.",
                "image": "http://recordsearch.naa.gov.au/SearchNRetrieve/NAAMedia/ShowImage.aspx?B=3030268&S=3&T=P",
                "location": {
                    "lat": "50.494090",
                    "long": "4.641254",
					"label": "The Western Front"
                }
            },
            {
                "description": "On 7 June 1917, Allen and his two brothers fought at the Battle of Messines. It was on this day that Josiah Allen, initially listed as missing, was later confirmed to have been killed in action, along with his brother James. His body was never recovered, and today Josiah Allen is commemorated on the Ypres (Menin Gate) Memorial, Belgium.",
                "image": "http://www.ww1westernfront.gov.au/ieper/menin-gate/images/mg-1.jpg",
                "location": {
                    "lat": "50.852170",
                    "long": "2.891122",
					"label": "Ypres"
                }
            }
        ]
 },
    {
        "name": "Herbert William COOKE",
		"serviceNumber": "425",
		"unit": "15th Battalion",
		"dob": "1893",
		"dod": "1915",
        "image": "http://resources.slq.qld.gov.au/images/slq/pub/2014-07-28/research/702692-19150612-s0023/702692-19150612-s0023-0011r.jpg",
        "pages": [
            {
                "description": "Herbert Cooke was a 21 year old labourer from Cedar Creek, on the edge of what is now the City of Gold Coast.  He was just 21 years old when he enlisted on the 23rd of September 1914.",
                "image": "http://resources.slq.qld.gov.au/images/slq/pub/2014-07-28/research/702692-19150612-s0023/702692-19150612-s0023-0011r.jpg",
                "location": {
                    "lat": "-27.862730",
                    "long": "153.199172",
					"label": "Cedar Creek"
                }
            },
            {
                "description": "After joining the 15th Battalion, C Company, he and his company embarked from Melbourne on HMAT A40 Ceramic on 22 December 1914, destined for the war in Europe.",
                "image": "https://static.awm.gov.au/images/collection/items/ACCNUM_SCREEN/H19500.JPG",
                "location": {
                    "lat": "37.823410",
                    "long": "144.956020",
					"label": "Melbourne"
                }
            },
            {
                "description": "Sent to Egypt, Herbert and his Battalion trained, reading for action, before being dispatched to Gallipoli in late April 1915.",
                "image": "http://anzaccentenary.vic.gov.au/wp-content/uploads/2014/06/Jospeh-Warburton_pyramid.jpg",
                "location": {
                    "lat": "26.619893",
                    "long": "29.784918",
					"label": "Egypt"
                }
            },
            {
                "description": "On the 30th of April, after just a few days at Gallipoli, Herbert was killed in action at Quinns's Post. The 21 year old was buried at the Beach Cemetery, Gallipoli in Plot I, Row A, Grave No. 10.",
                "image": "http://www.cwgc.org/dbImage.ashx?id=14844",
                "location": {
                    "lat": "40.043838",
                    "long": "26.183750",
					"label": "Gallipoli"
                }
            }
        ]
 },
    {
        "name": "Robert Gray",
		"serviceNumber": "1328A",
		"unit": "15th Battalion, 2nd Reinforcement",
		"dob": "1894",
		"dod": "1915","serviceNumber": "2614",
		"unit": "49th Australian Infantry Battalion",
        "image": "http://resources.slq.qld.gov.au/images/slq/pub/2014-06-03/research/702692-19150605-s0024/702692-19150605-s0024-0013r.jpg",
        "pages": [
            {
                "description": "Just two days before Christmas day, Robert Gray, a 21 year old labourer left his mothers Southport home to enlist in the Australian Imperial Force.",
                "image": "http://resources.slq.qld.gov.au/images/slq/pub/2014-06-03/research/702692-19150605-s0024/702692-19150605-s0024-0013r.jpg",
                "location": {
                    "lat": "-27.968046",
                    "long": "153.412879",
					"label": "Southport"
                }
            },
            {
                "description": "He and his unit from the 15th Battalion, 2nd Reinforcement, embarked upon the HMAT Seang Bee from the port of Brisbane.",
                "image": "http://collectionsearch.nma.gov.au/nmacs-image-download/piction/dams_data/prodderiv3/WM_47831765/nma-47831765001-wm-vs1_o3_640.jpg",
                "location": {
                    "lat": "-27.478078",
                    "long": "153.016592",
					"label": "Brisbane"
                }
            },
            {
                "description": "On the 14 May 1915, Robert Grey died of wounds recieved in battle.  He was just 21. He is believed to be buried in Gallipoli, but it is unclear precisely where.",
                "image": "http://www.gallipoli.gov.au/explore-northern-war-cemeteries/images_graves/large/lone_03-L.jpg",
                "location": {
                    "lat": "40.333570",
                    "long": "26.500011",
					"label": "Gallipoli"
                }
            }
        ]
 },
    {
        "name": "Andrew Anderson",
		"serviceNumber": "561",
		"unit": "25th Battalion, Machine Gun Section",
		"dob": "1895",
		"dod": "1917",
        "image": "http://resources.slq.qld.gov.au/images/slq/pub/2014-07-24/research/702692-19150320-s0022/702692-19150320-s0022-0055r.jpg",
        "pages": [
            {
                "description": "At the tender age of 20, Andrew Anderson left his home near Bunderberg to enlist.  He was assigned to the 25th Battalion, Machine Gun Section on the 30th of January 1915.",
                "image": "http://resources.slq.qld.gov.au/images/slq/pub/2014-07-24/research/702692-19150320-s0022/702692-19150320-s0022-0055r.jpg",
                "location": {
                    "lat": "-24.866172",
                    "long": "152.348822",
					"label": "Bunderberg"
                }
            },
            {
                "description": "His unit were loaded aboard HMAT A60 Aeneas on 29 June 1915 in Brisbane, destined for the Western Front.",
                "image": "https://rslvwm.s3.amazonaws.com/I/images/7497/photo/zoom_HMAT_A60_Aeneas__1915.jpg",
                "location": {
                    "lat": "-27.478078",
                    "long": "153.038565",
					"label": "Brisbane"
                }
            },
            {
                "description": "After the disasterous Gallipoli campaign, he and his unit were sent on to the Western Front.",
                "image": "http://www.gallipoli.gov.au/north-beach-and-the-sari-bair-range/images/large/ch1_2-L.jpg",
                "location": {
                    "lat": "40.333546",
                    "long": "26.499957",
					"label": "Gallipoli"
                }
            },
            {
                "description": "He was killed in action near Ypres, on the 20th September 1917. It is not known where exactly he is buried, but he is memorialised on Ypres' famous Menin Gate Memorial.",
                "image": "http://www.cwgc.org/dbImage.ashx?id=15435",
                "location": {
                    "lat": "50.852075",
                    "long": "2.891143",
					"label": "Ypres"
                }
            }
        ]

 }
]